\select@language {english}
\contentsline {section}{\numberline {1}Sepal.Length}{3}
\contentsline {section}{\numberline {2}Sepal.Width}{5}
\contentsline {section}{\numberline {3}Petal.Length}{7}
\contentsline {section}{\numberline {4}Petal.Width}{9}
\contentsline {section}{\numberline {5}Species}{11}
