\relax 
\AC@reset@newl@bel
\providecommand \oddpage@label [2]{}
\select@language{english}
\@writefile{toc}{\select@language{english}}
\@writefile{lof}{\select@language{english}}
\@writefile{lot}{\select@language{english}}
\@writefile{toc}{\contentsline {section}{\numberline {1}Sepal.Length}{3}}
\@writefile{lot}{\contentsline {table}{\numberline {1}{\ignorespaces Frequency table of \bf  {Sepal.Length}}}{4}}
\@writefile{lof}{\contentsline {figure}{\numberline {1}{\ignorespaces The results of the Shapiro-Wilk normality test suggest that the distribution does NOT follow a Normal Distribution.}}{4}}
\@writefile{toc}{\contentsline {section}{\numberline {2}Sepal.Width}{5}}
\@writefile{lot}{\contentsline {table}{\numberline {2}{\ignorespaces Frequency table of \bf  {Sepal.Width}}}{6}}
\@writefile{lof}{\contentsline {figure}{\numberline {2}{\ignorespaces The results of the Shapiro-Wilk normality test suggest that the distribution follows a Normal Distribution.}}{6}}
\@writefile{toc}{\contentsline {section}{\numberline {3}Petal.Length}{7}}
\@writefile{lot}{\contentsline {table}{\numberline {3}{\ignorespaces Frequency table of \bf  {Petal.Length}}}{8}}
\@writefile{lof}{\contentsline {figure}{\numberline {3}{\ignorespaces The results of the Shapiro-Wilk normality test suggest that the distribution does NOT follow a Normal Distribution.}}{8}}
\@writefile{toc}{\contentsline {section}{\numberline {4}Petal.Width}{9}}
\@writefile{lot}{\contentsline {table}{\numberline {4}{\ignorespaces Frequency table of \bf  {Petal.Width}}}{10}}
\@writefile{lof}{\contentsline {figure}{\numberline {4}{\ignorespaces The results of the Shapiro-Wilk normality test suggest that the distribution does NOT follow a Normal Distribution.}}{10}}
\gdef \LT@i {\LT@entry 
    {1}{56.01892pt}\LT@entry 
    {1}{60.51938pt}\LT@entry 
    {1}{58.70166pt}\LT@entry 
    {1}{123.66794pt}}
\@writefile{toc}{\contentsline {section}{\numberline {5}Species}{11}}
\@writefile{lot}{\contentsline {table}{\numberline {5}{Frequency Table of Species. NA = missing values.}}{11}}
