\relax 
\AC@reset@newl@bel
\providecommand \oddpage@label [2]{}
\select@language{english}
\@writefile{toc}{\select@language{english}}
\@writefile{lof}{\select@language{english}}
\@writefile{lot}{\select@language{english}}
\@writefile{toc}{\contentsline {section}{\numberline {1}height}{3}}
\@writefile{lot}{\contentsline {table}{\numberline {1}{\ignorespaces Frequency table of \bf  {height}}}{4}}
\@writefile{lof}{\contentsline {figure}{\numberline {1}{\ignorespaces The results of the Shapiro-Wilk normality test suggest that the distribution does NOT follow a Normal Distribution.}}{4}}
\@writefile{toc}{\contentsline {section}{\numberline {2}age}{5}}
\@writefile{lot}{\contentsline {table}{\numberline {2}{\ignorespaces Frequency table of \bf  {age}}}{6}}
\@writefile{lof}{\contentsline {figure}{\numberline {2}{\ignorespaces The results of the Shapiro-Wilk normality test suggest that the distribution does NOT follow a Normal Distribution.}}{6}}
\gdef \LT@i {\LT@entry 
    {1}{54.1684pt}\LT@entry 
    {1}{60.51938pt}\LT@entry 
    {1}{58.70166pt}\LT@entry 
    {1}{61.00116pt}\LT@entry 
    {1}{86.2518pt}}
\@writefile{toc}{\contentsline {section}{\numberline {3}Seed}{7}}
\@writefile{lot}{\contentsline {table}{\numberline {3}{Frequency Table of Seed. Missing values = 0 (0.0 \%).}}{7}}
